<svg width="132" height="132" viewBox="0 0 132 132" fill="none" xmlns="http://www.w3.org/2000/svg">
<path fill-rule="evenodd" clip-rule="evenodd" d="M0 66C0 102.451 29.5492 132 66 132C102.451 132 132 102.451 132 66C132 29.5492 102.451 0 66 0V14C94.7188 14 118 37.2812 118 66C118 94.7188 94.7188 118 66 118C37.2812 118 14 94.7188 14 66H0Z" fill="#57BBBC"/>
</svg>
